More dplyr and ggplot introduction
…
Exercise

Using group_by to group by more than one variable

Use the group_by and summarise functions with the storms dataset to calculate the mean and maximum wind speed associated with each combination of month and year. Assign the result a name and then use View to examine it. Which month in which year saw the largest maximum wind speed?

Hint: You can guess the names of the two functions that calculate the mean and max from a numeric vector.

# 1. make a grouped tibble
storms_grouped <- group_by(storms, year, month)
# 2. use summarise on the grouped data
summarise(storms_grouped, mean_speed = mean(wind), max_speed = max(wind))

## Source: local data frame [30 x 4]
## Groups: year [?]
## 
##     year month mean_speed max_speed
##    <int> <int>      <dbl>     <int>
## 1   1995     6   44.39394        65
## 2   1995     7   41.39241        60
## 3   1995     8   54.16000       120
## 4   1995     9   64.41489       120
## 5   1995    10   50.48485       130
## 6   1995    11   55.00000        70
## 7   1996     6   35.22727        45
## 8   1996     7   56.79104       100
## 9   1996     8   57.21374       125
## 10  1996     9   60.86806       120
## # ... with 20 more rows

Exercise

Using group_by and mutate

The group_by function works with any dplyr verb that operates on variables (columns). Use the group_by and mutate functions with the iris dataset to calculate a "mean centred" version of sepal length. A centred variable is just one that has had its overall mean subtracted from every value.

Do you understand the different behaviour of summarise and mutate when used alongside group_by?

# 1. group iris by species identity
iris_grouped <- group_by(iris, Species)
# 2. use mutate on the grouped data
mutate(iris_grouped, sl_centred = Sepal.Length - mean(Sepal.Length))

## Source: local data frame [150 x 6]
## Groups: Species [3]
## 
##    Sepal.Length Sepal.Width Petal.Length Petal.Width Species sl_centred
##           <dbl>       <dbl>        <dbl>       <dbl>  <fctr>      <dbl>
## 1           5.1         3.5          1.4         0.2  setosa      0.094
## 2           4.9         3.0          1.4         0.2  setosa     -0.106
## 3           4.7         3.2          1.3         0.2  setosa     -0.306
## 4           4.6         3.1          1.5         0.2  setosa     -0.406
## 5           5.0         3.6          1.4         0.2  setosa     -0.006
## 6           5.4         3.9          1.7         0.4  setosa      0.394
## 7           4.6         3.4          1.4         0.3  setosa     -0.406
## 8           5.0         3.4          1.5         0.2  setosa     -0.006
## 9           4.4         2.9          1.4         0.2  setosa     -0.606
## 10          4.9         3.1          1.5         0.1  setosa     -0.106
## # ... with 140 more rows
…
Exercise

Using group_by to group by more than one variable

Let's repeat the earlier group_by and summarise exercise, using the pipe. Rememeber, we used the group_by and summarise functions with the storms dataset to calculate the mean and maximum wind speed (in the wind variable) associated with each combination of month and year.

storms %>% 
  group_by(year, month) %>%
  summarise(mean_speed = mean(wind), max_speed = max(wind))

## Source: local data frame [30 x 4]
## Groups: year [?]
## 
##     year month mean_speed max_speed
##    <int> <int>      <dbl>     <int>
## 1   1995     6   44.39394        65
## 2   1995     7   41.39241        60
## 3   1995     8   54.16000       120
## 4   1995     9   64.41489       120
## 5   1995    10   50.48485       130
## 6   1995    11   55.00000        70
## 7   1996     6   35.22727        45
## 8   1996     7   56.79104       100
## 9   1996     8   57.21374       125
## 10  1996     9   60.86806       120
## # ... with 20 more rows
…
