Chapter 16 Building pipelines | APS 135: Introduction to Exploratory Data Analysis with R
…
Chapter 16 Building pipelines

This chapter will introduce something called the pipe operator: %>%. We don’t often use the various dplyr verbs in isolation. Instead, starting with our raw data, they are combined in a sequence to prepare the data for further analysis (e.g. making a plot, calculating summaries, fitting a statistical model, and so on). The function of the pipe operator is to make the data wrangling part of such a workflow as transparent as possible.

16.1 Why do we need ‘pipes’?

We’ve seen that carrying out calculations on a per-group basis can be achieved by grouping a tibble, assigning this a name, and then applying the summarise function to the new tibble. For example, if we need the mean wind speed for every storm recorded in storms_tbl, we could use:

# 1. make a grouped copy of the storms data
storms_grouped <- group_by(storms_tbl, name)
# 2. calculate the mean wind speed for each storm
summarise(storms_grouped, mean.wind = mean(wind))

## # A tibble: 79 x 2
##    name    mean.wind
##    <chr>       <dbl>
##  1 Alberto      63.0
##  2 Alex         35.4
##  3 Allison      44.4
##  4 Ana          32.1
##  5 Arlene       39.0
##  6 Arthur       35.2
##  7 Barry        39.8
##  8 Bertha       60  
##  9 Beryl        36.1
## 10 Bill         50.6
## # … with 69 more rows
…
