APS 135: Introduction to Exploratory Data Analysis with R
…
Now that we know about the iris and storms datasets we can finish up this topic by reviewing a couple more features of the dplyr package. dplyr is not part of the base R installation, so we must install it first:

install.packages("dplyr")

Remember to also add library(nasaweather) at the top of any scripts you build while working through this block.

12.4.1 tbl objects

The main purpose of the dplyr package is to make manipulating data easier. In order to facilitate this kind of activity dplyr also implements a special kind of data object called a “table”. These are tbl objects. You can think of a table is as a special data frame with a few extra whistles and bells. We can make a table from a data frame by using the tbl_df function.

When a table is printed to the Console it does so in a compact way, rather than trying to print every row to the Console. To see this, we can convert the iris dataset to a table using tbl_df and then print the resulting object to the Console:

tbl_df(iris)

## # A tibble: 150 × 5
##    Sepal.Length Sepal.Width Petal.Length Petal.Width Species
##           <dbl>       <dbl>        <dbl>       <dbl>  <fctr>
## 1           5.1         3.5          1.4         0.2  setosa
## 2           4.9         3.0          1.4         0.2  setosa
## 3           4.7         3.2          1.3         0.2  setosa
## 4           4.6         3.1          1.5         0.2  setosa
## 5           5.0         3.6          1.4         0.2  setosa
## 6           5.4         3.9          1.7         0.4  setosa
## 7           4.6         3.4          1.4         0.3  setosa
## 8           5.0         3.4          1.5         0.2  setosa
## 9           4.4         2.9          1.4         0.2  setosa
## 10          4.9         3.1          1.5         0.1  setosa
## # ... with 140 more rows
…
