APS 135: Introduction to Exploratory Data Analysis with R
…
Performing a calculation with one or more variables over the whole data set is useful, but very often we also need to carry out an operation on different subsets of our data. For example, it’s probably more useful to know how the mean sepal and petal traits vary among the different species in the iris_tbl data set, rather than knowing the overall mean of these traits. We could calculate separate means by using filter to create different subsets of iris_tbl, and then using summary on each of these to calculate the relevant means. This would get the job done, but it’s not very efficient and very soon becomes tiresome when we have to work with many groups.

The group_by function provides a more elegant solution to this kind of problem. It doesn’t do all that much on its own though. All the group_by function does is add a bit of grouping information to a tibble or data frame. In effect, it defines subsets of data on the basis of one or more grouping variables. The magic happens when the grouped object is used with a dplyr verb like summarise or mutate. Once a data frame or tibble has been tagged with grouping information, operations that involve these (and other) verbs are carried out on separate subsets of the data, where the subsets correspond to the different values of the grouping variable(s).

Basic usage of group_by looks like this:

group_by(data_set, vname1, vname2, ...)

The first argument, data_set (“data object”), must be the name of the object containing our data. We then have to include one or more additional arguments, where each of these is the name of a variable in data_set. I have expressed this as vname1, vname2, ..., where vname1 and vname2 are names of the first two variables, and the ... is acting as placeholder for the remaining variables.

As usual, it’s much easier to understand how group_by works once we’ve seen it in action. We’ll illustrate group_by by using it alongside summarise with the storms_tbl data set. We’re aiming to calculate the mean wind speed for every type of storm. The first step is to use group_by to add grouping information to storms_tbl:

group_by(storms_tbl, type)

## Source: local data frame [2,747 x 11]
## Groups: type [4]
## 
##       name  year month   day  hour   lat  long pressure  wind
##      <chr> <int> <int> <int> <int> <dbl> <dbl>    <int> <int>
## 1  Allison  1995     6     3     0  17.4 -84.3     1005    30
## 2  Allison  1995     6     3     6  18.3 -84.9     1004    30
## 3  Allison  1995     6     3    12  19.3 -85.7     1003    35
## 4  Allison  1995     6     3    18  20.6 -85.8     1001    40
## 5  Allison  1995     6     4     0  22.0 -86.0      997    50
## 6  Allison  1995     6     4     6  23.3 -86.3      995    60
## 7  Allison  1995     6     4    12  24.7 -86.2      987    65
## 8  Allison  1995     6     4    18  26.2 -86.2      988    65
## 9  Allison  1995     6     5     0  27.6 -86.1      988    65
## 10 Allison  1995     6     5     6  28.5 -85.6      990    60
## # ... with 2,737 more rows, and 2 more variables: type <chr>,
## #   seasday <int>

Compare this to the output produced when we print the original storms_tbl data set:

storms_tbl

## # A tibble: 2,747 × 11
##       name  year month   day  hour   lat  long pressure  wind
##      <chr> <int> <int> <int> <int> <dbl> <dbl>    <int> <int>
## 1  Allison  1995     6     3     0  17.4 -84.3     1005    30
## 2  Allison  1995     6     3     6  18.3 -84.9     1004    30
## 3  Allison  1995     6     3    12  19.3 -85.7     1003    35
## 4  Allison  1995     6     3    18  20.6 -85.8     1001    40
## 5  Allison  1995     6     4     0  22.0 -86.0      997    50
## 6  Allison  1995     6     4     6  23.3 -86.3      995    60
## 7  Allison  1995     6     4    12  24.7 -86.2      987    65
## 8  Allison  1995     6     4    18  26.2 -86.2      988    65
## 9  Allison  1995     6     5     0  27.6 -86.1      988    65
## 10 Allison  1995     6     5     6  28.5 -85.6      990    60
## # ... with 2,737 more rows, and 2 more variables: type <chr>,
## #   seasday <int>
…
When we used summarise on an ungrouped tibble the result was a tibble with one row: the overall global mean. Now the resulting tibble has four rows, one for each value of type: The type variable in the new tibble tells us what these values are; the mean.wind variable shows the mean wind speed for each value.

15.2.1 More than one grouping variable

What if we need to calculate summaries using more than one grouping variable? The workflow is unchanged. Let’s assume we want to know the mean wind speed and atmospheric pressure associated with each storm type in each year. We first make a grouped copy of the data set with the appropriate grouping variables:

# group the storms_tbl data by storm year + assign the result a name
storms_grouped <- group_by(storms_tbl, type, year)
# 
storms_grouped

## Source: local data frame [2,747 x 11]
## Groups: type, year [24]
## 
##       name  year month   day  hour   lat  long pressure  wind
##      <chr> <int> <int> <int> <int> <dbl> <dbl>    <int> <int>
## 1  Allison  1995     6     3     0  17.4 -84.3     1005    30
## 2  Allison  1995     6     3     6  18.3 -84.9     1004    30
## 3  Allison  1995     6     3    12  19.3 -85.7     1003    35
## 4  Allison  1995     6     3    18  20.6 -85.8     1001    40
## 5  Allison  1995     6     4     0  22.0 -86.0      997    50
## 6  Allison  1995     6     4     6  23.3 -86.3      995    60
## 7  Allison  1995     6     4    12  24.7 -86.2      987    65
## 8  Allison  1995     6     4    18  26.2 -86.2      988    65
## 9  Allison  1995     6     5     0  27.6 -86.1      988    65
## 10 Allison  1995     6     5     6  28.5 -85.6      990    60
## # ... with 2,737 more rows, and 2 more variables: type <chr>,
## #   seasday <int>

We grouped the storms_tbl data by type and year and assigned the grouped tibble the name storms_grouped. When we print this to the Console we see Groups: type, year [24] near the top, which tells us that the tibble is grouped by two variables with 24 unique combinations of values. We then calculate the mean wind speed and pressure of each storm type in each year:

summarise(storms_grouped, 
          mean_wind     = mean(wind), 
          mean_pressure = mean(pressure))

## Source: local data frame [24 x 4]
## Groups: type [?]
## 
##             type  year mean_wind mean_pressure
##            <chr> <int>     <dbl>         <dbl>
## 1  Extratropical  1995  38.67521      995.2991
## 2  Extratropical  1996  40.42105      991.2526
## 3  Extratropical  1997  38.94737      999.7632
## 4  Extratropical  1998  42.92208      990.6104
## 5  Extratropical  1999  38.86364      992.0909
## 6  Extratropical  2000  39.68254      996.7619
## 7      Hurricane  1995  81.99187      969.6016
## 8      Hurricane  1996  85.50336      969.1275
## 9      Hurricane  1997  80.39474      976.3947
## 10     Hurricane  1998  87.04142      972.4260
## # ... with 14 more rows

This calculates mean wind speed and atmospheric pressure for different combination of type and year. The first line shows us that the mean wind speed and pressure associated with extra-tropical storms in 1995 was 38.7 mph and 995 millibars, the second line shows us that the mean wind speed and pressure associated with extra-tropical storms in 1995 was 40.4 mph and 991 millibars, and so on. There are 24 rows in total because there were 24 unique combinations of type and year in the original storms_tbl.

15.2.2 Using group_by with other verbs

The summarise function is the only dplyr verb we’ll use with grouped tibbles in this book. However, all the main verbs alter their behaviour to respect group identity when used with tibbles with grouping information. When mutate or transmute are used with a grouped object they still add new variables, but now the calculations occur “by group”. Here’s an example using transmute:

# group the storms data by storm name + assign the result a name
storms_grouped <- group_by(storms_tbl, name)
# create a data set 'mean centred' wind speed variable
transmute(storms_grouped, wind_centred = wind - mean(wind))

## Adding missing grouping variables: `name`

## Source: local data frame [2,747 x 2]
## Groups: name [79]
## 
##       name wind_centred
##      <chr>        <dbl>
## 1  Allison   -14.393939
## 2  Allison   -14.393939
## 3  Allison    -9.393939
## 4  Allison    -4.393939
## 5  Allison     5.606061
## 6  Allison    15.606061
## 7  Allison    20.606061
## 8  Allison    20.606061
## 9  Allison    20.606061
## 10 Allison    15.606061
## # ... with 2,737 more rows

In this example we calculated the “group mean-centered” version of the wind variable. The new wind_centred variable contains the difference between the wind speed and the mean of whichever storm type is associated with the observation.

15.3 Removing grouping information

On occasion it’s necessary to remove grouping information from a data object. This is most often done when working with “pipes” (the topic of the next chapter) when we need to revert back to operating on the whole data set. The ungroup function removes grouping information:

ungroup(storms_grouped)

## # A tibble: 2,747 × 11
##       name  year month   day  hour   lat  long pressure  wind
##      <chr> <int> <int> <int> <int> <dbl> <dbl>    <int> <int>
## 1  Allison  1995     6     3     0  17.4 -84.3     1005    30
## 2  Allison  1995     6     3     6  18.3 -84.9     1004    30
## 3  Allison  1995     6     3    12  19.3 -85.7     1003    35
## 4  Allison  1995     6     3    18  20.6 -85.8     1001    40
## 5  Allison  1995     6     4     0  22.0 -86.0      997    50
## 6  Allison  1995     6     4     6  23.3 -86.3      995    60
## 7  Allison  1995     6     4    12  24.7 -86.2      987    65
## 8  Allison  1995     6     4    18  26.2 -86.2      988    65
## 9  Allison  1995     6     5     0  27.6 -86.1      988    65
## 10 Allison  1995     6     5     6  28.5 -85.6      990    60
## # ... with 2,737 more rows, and 2 more variables: type <chr>,
## #   seasday <int>
…
