APS 135: Introduction to Exploratory Data Analysis with R
…
storms_tbl <- tbl_df(storms)

13.2 Subset observations with filter

We use filter to subset observations in a data frame or tibble containing our data. This is often done when we want to limit an analysis to a subset of observations. Basic usage of filter looks something like this:

filter(data_set, <expression1>, <expression1>, ...)

Remember, this is pseudo code (it’s not an example we can run). The first argument, data_set, must the name of the object containing our data. We then include one or more additional arguments, where each of these is a valid R expression involving one or more variables in data_set. Each expression must return a logical vector. We’ve expressed these as <expression1>, <expression2>, ..., where <expression1> and <expression2> represent the first two expressions, and the ... is acting as placeholder for the remaining expressions.

To see how filter works in action, we’ll use it to subset observations in the storms_tbl dataset, based on two relational criteria:

filter(storms_tbl, pressure <= 960, wind >= 100)

## # A tibble: 199 x 11
##     name  year month   day  hour   lat  long pressure  wind      type
##    <chr> <int> <int> <int> <int> <dbl> <dbl>    <int> <int>     <chr>
##  1 Felix  1995     8    12     0  22.1 -57.8      955   100 Hurricane
##  2 Felix  1995     8    12     6  22.9 -59.0      943   110 Hurricane
##  3 Felix  1995     8    12    12  23.6 -60.2      932   115 Hurricane
##  4 Felix  1995     8    12    18  24.3 -61.0      929   120 Hurricane
##  5 Felix  1995     8    13     0  25.1 -61.6      930   115 Hurricane
##  6 Felix  1995     8    13     6  25.9 -61.9      937   105 Hurricane
##  7 Felix  1995     8    13    12  26.6 -62.3      942   100 Hurricane
##  8  Luis  1995     9     1     6  15.8 -42.6      958   105 Hurricane
##  9  Luis  1995     9     1    12  16.2 -43.6      950   115 Hurricane
## 10  Luis  1995     9     1    18  16.5 -44.7      948   115 Hurricane
## # ... with 189 more rows, and 1 more variables: seasday <int>
In this example we’ve created a subset of storms_tbl that only includes observations where the pressure variable is less than or equal to 960 and the wind variable is greater than or equal to 100. Both conditions must be met for an observation to be included in the resulting tibble. The conditions are not combined as an either/or operation.

This is probably starting to become repetitious, but there are a few features of filter that we should note:

Each expression that performs a comparison is not surrounded by quotes. This makes sense, because the expression is meant to be evaluated to return a logical vector – it is not “a value”.

As usual, the result produced by mutate in our example was printed to the Console. The mutate function did not change the original storms_tbl in any way (no side effects!).

The filter function will return the same kind of data object it is working on: it returns a data frame if our data was originally in a data frame, and a tibble if it was a tibble.

We can achieve the same result as the above example in a different way. This involves the & operator:

filter(storms_tbl, pressure <= 960 & wind >= 100)

## # A tibble: 199 x 11
##     name  year month   day  hour   lat  long pressure  wind      type
##    <chr> <int> <int> <int> <int> <dbl> <dbl>    <int> <int>     <chr>
##  1 Felix  1995     8    12     0  22.1 -57.8      955   100 Hurricane
##  2 Felix  1995     8    12     6  22.9 -59.0      943   110 Hurricane
##  3 Felix  1995     8    12    12  23.6 -60.2      932   115 Hurricane
##  4 Felix  1995     8    12    18  24.3 -61.0      929   120 Hurricane
##  5 Felix  1995     8    13     0  25.1 -61.6      930   115 Hurricane
##  6 Felix  1995     8    13     6  25.9 -61.9      937   105 Hurricane
##  7 Felix  1995     8    13    12  26.6 -62.3      942   100 Hurricane
##  8  Luis  1995     9     1     6  15.8 -42.6      958   105 Hurricane
##  9  Luis  1995     9     1    12  16.2 -43.6      950   115 Hurricane
## 10  Luis  1995     9     1    18  16.5 -44.7      948   115 Hurricane
## # ... with 189 more rows, and 1 more variables: seasday <int>

Once again, we created a subset of storms_tbl that only includes observation where the pressure variable is less than or equal to 960 and the wind variable is greater than or equal to 100. However, rather than supplying pressure <= 960 and wind >= 100 as two arguments, we used a single R expression, combining them with the &. We’re pointing this out because we sometimes need to subset on an either/or basis, and in those cases we have to use this second approach. For example:

filter(storms_tbl, pressure <= 960 | wind >= 100)

## # A tibble: 266 x 11
##     name  year month   day  hour   lat  long pressure  wind      type
##    <chr> <int> <int> <int> <int> <dbl> <dbl>    <int> <int>     <chr>
##  1 Felix  1995     8    12     0  22.1 -57.8      955   100 Hurricane
##  2 Felix  1995     8    12     6  22.9 -59.0      943   110 Hurricane
##  3 Felix  1995     8    12    12  23.6 -60.2      932   115 Hurricane
##  4 Felix  1995     8    12    18  24.3 -61.0      929   120 Hurricane
##  5 Felix  1995     8    13     0  25.1 -61.6      930   115 Hurricane
##  6 Felix  1995     8    13     6  25.9 -61.9      937   105 Hurricane
##  7 Felix  1995     8    13    12  26.6 -62.3      942   100 Hurricane
##  8 Felix  1995     8    13    18  27.4 -62.3      947    95 Hurricane
##  9 Felix  1995     8    14     0  28.2 -62.5      948    90 Hurricane
## 10 Felix  1995     8    14     6  29.0 -62.9      954    80 Hurricane
## # ... with 256 more rows, and 1 more variables: seasday <int>
…
13.3 Reording observations with arrange

We use arrange to reorder the rows of an object containing our data. This is sometimes used when we want to inspect a dataset to look for associations among the different variables. This is hard to do if they are not ordered. Basic usage of arrange looks like this:

arrange(data_set, vname1, vname2, ...)

Yes, this is pseudo-code. As always, the first argument, data_set, is the name of the object containing our data. We then include a series of one or more additional arguments, where each of these should be the name of a variable in data_set: vname1 and vname2 are names of the first two ordering variables, and the ... is acting as placeholder for the remaining variables.

To see arrange in action, let’s construct a new version of storms_tbl where the rows have been reordered first by wind, and then by pressure:

arrange(storms_tbl, wind, pressure)

## # A tibble: 2,747 x 11
##       name  year month   day  hour   lat  long pressure  wind
##      <chr> <int> <int> <int> <int> <dbl> <dbl>    <int> <int>
##  1    Fran  1996     9     9    12  45.7 -72.3     1006    15
##  2    Fran  1996     9     9    18  46.0 -71.1     1008    15
##  3    Fran  1996     9    10     0  46.7 -70.0     1010    15
##  4 Frances  1998     9    13     6  31.7 -96.9     1002    20
##  5    Dean  1995     7    31    18  30.5 -96.5     1003    20
##  6    Erin  1995     8     4    12  33.2 -89.7     1003    20
##  7    Erin  1995     8     4    18  34.1 -90.2     1003    20
##  8    Erin  1995     8     5     0  34.8 -90.2     1003    20
##  9    Erin  1995     8     5     6  35.4 -90.1     1003    20
## 10    Erin  1995     8     5    12  36.3 -89.8     1003    20
## # ... with 2,737 more rows, and 2 more variables: type <chr>,
## #   seasday <int>
This creates a new version of storms_tbl where the rows are sorted according to the values of wind and pressure in ascending order – i.e. from smallest to largest. Since wind appears before pressure among the arguments, the values of pressure are only used to break ties within any particular value of wind.

For the sake of avoiding any doubt about how arrange works, let’s quickly review its behaviour:

The variable names used as arguments of arrange are not surrounded by quotes.

The arrange function did not change the original iris_tbl in any way.

The arrange function will return the same kind of data object it is working on.

There isn’t much else we need to to learn about arrange. By default, it sorts variables in ascending order. If we need it to sort a variable in descending order, we wrap the variable name in the desc function:

arrange(storms_tbl, wind, desc(pressure))

## # A tibble: 2,747 x 11
##       name  year month   day  hour   lat  long pressure  wind
##      <chr> <int> <int> <int> <int> <dbl> <dbl>    <int> <int>
##  1    Fran  1996     9    10     0  46.7 -70.0     1010    15
##  2    Fran  1996     9     9    18  46.0 -71.1     1008    15
##  3    Fran  1996     9     9    12  45.7 -72.3     1006    15
##  4   Barry  1995     7     5     6  32.0 -72.0     1019    20
##  5   Barry  1995     7     5    12  32.0 -72.0     1019    20
##  6   Barry  1995     7     5    18  31.9 -72.0     1018    20
##  7 Marilyn  1995     9    30    12  34.6 -49.3     1016    20
##  8 Marilyn  1995     9    30    18  34.7 -50.0     1016    20
##  9 Marilyn  1995    10     1     0  34.8 -50.5     1016    20
## 10 Marilyn  1995    10     1     6  35.0 -51.0     1016    20
## # ... with 2,737 more rows, and 2 more variables: type <chr>,
## #   seasday <int>
…
